<?xml version="1.0" encoding="UTF-8" standalone="no"?>
<svg
   xmlns:dc="http://purl.org/dc/elements/1.1/"
   xmlns:cc="http://creativecommons.org/ns#"
   xmlns:rdf="http://www.w3.org/1999/02/22-rdf-syntax-ns#"
   xmlns:svg="http://www.w3.org/2000/svg"
   xmlns="http://www.w3.org/2000/svg"
   xmlns:sodipodi="http://sodipodi.sourceforge.net/DTD/sodipodi-0.dtd"
   xmlns:inkscape="http://www.inkscape.org/namespaces/inkscape"
   version="1.1"
   id="svg2985"
   height="759.37952"
   width="1439.4581"
   sodipodi:docname="logo_large.svg"
   inkscape:version="0.92.1 r"
   inkscape:export-filename="/home/wilkie/images/logo_large.png"
   inkscape:export-xdpi="80.023232"
   inkscape:export-ydpi="80.023232">
  <sodipodi:namedview
     pagecolor="#ffffff"
     bordercolor="#666666"
     borderopacity="1"
     objecttolerance="10"
     gridtolerance="10"
     guidetolerance="10"
     inkscape:pageopacity="0"
     inkscape:pageshadow="2"
     inkscape:window-width="1920"
     inkscape:window-height="1152"
     id="namedview4880"
     showgrid="false"
     inkscape:object-nodes="false"
     inkscape:zoom="0.5"
     inkscape:cx="809.38407"
     inkscape:cy="691.49449"
     inkscape:window-x="0"
     inkscape:window-y="20"
     inkscape:window-maximized="1"
     inkscape:current-layer="svg2985" />
  <defs
     id="defs2987" />
  <metadata
     id="metadata2990">
    <rdf:RDF>
      <cc:Work
         rdf:about="">
        <dc:format>image/svg+xml</dc:format>
        <dc:type
           rdf:resource="http://purl.org/dc/dcmitype/StillImage" />
        <dc:title />
      </cc:Work>
    </rdf:RDF>
  </metadata>
  <g
     style="font-style:normal;font-weight:normal;font-size:151.83480835px;line-height:125%;font-family:'Cinzel Decorative Bold';-inkscape-font-specification:'Cinzel Decorative Bold';letter-spacing:0px;word-spacing:0px;fill:#488e9c;fill-opacity:1;stroke:none"
     id="text2993"
     transform="translate(221.15746,-280.28516)" />
  <rect
     style="fill:#c764d9;fill-opacity:1;stroke:none;stroke-width:0.86914486"
     id="rect4892"
     width="99.2761"
     height="99.2761"
     x="-71.35659"
     y="365.50018"
     transform="matrix(0.89442719,-0.4472136,0.89442719,0.4472136,0,0)" />
  <rect
     style="fill:#9f45af;fill-opacity:1;stroke:none;stroke-width:0.86914486"
     id="rect4907"
     width="100.33343"
     height="95.958771"
     x="398.57755"
     y="424.27579"
     transform="matrix(0.8949854,-0.44609543,0,1,0,0)" />
  <rect
     transform="matrix(-0.8949854,-0.44609543,0,1,0,0)"
     y="73.718964"
     x="-388.51709"
     height="95.958771"
     width="100.33343"
     id="rect4938"
     style="fill:#9f45af;fill-opacity:1;stroke:none;stroke-width:0.86914486" />
  <path
     inkscape:connector-curvature="0"
     style="fill:#488e9c;fill-opacity:1;stroke:none;stroke-width:0.86914486"
     d="m 251.49342,303.70885 -22.52139,11.21642 123.14448,61.48369 c 42.14641,-20.95066 85.67596,-42.72964 123.23303,-61.48369 l -22.49187,-11.21642 -3.86672,1.91859 13.43019,6.70034 -3.42396,1.71198 -13.43018,-6.70034 -5.72628,2.86315 8.97313,4.45704 -3.01072,1.50537 -8.97313,-4.48657 -6.05097,3.01072 13.40067,6.70034 -3.42396,1.71197 -13.40066,-6.70033 -5.72629,2.89266 8.97314,4.45705 -3.01073,1.50536 -8.97313,-4.48657 -6.05096,3.01072 13.40067,6.70034 -3.42396,1.71198 -13.40068,-6.70034 -5.75579,2.86314 9.00266,4.48657 -3.01073,1.47585 -8.97314,-4.45705 -6.08047,3.01071 13.43019,6.70035 -3.42396,1.71197 -13.40068,-6.70033 -5.72627,2.86313 8.94362,4.45706 -3.01073,1.50536 -8.94362,-4.45705 -6.05096,3.01072 13.40067,6.70034 -3.45347,1.71197 -13.40068,-6.70033 -5.72627,2.86314 8.97314,4.45705 -3.01073,1.50537 -8.97314,-4.45706 -6.05096,3.01072 13.40067,6.70034 -3.42396,1.68246 -13.40067,-6.67082 -2.30231,1.15117 -2.33184,-1.15117 -13.37115,6.67082 -3.45348,-1.68246 13.40067,-6.70034 -6.05096,-3.01072 -8.94362,4.45706 -3.01072,-1.50537 8.94361,-4.45705 -5.72627,-2.86314 -13.40068,6.70033 -3.42395,-1.71197 13.40067,-6.70034 -6.05096,-3.01072 -8.97314,4.45705 -3.01073,-1.50536 8.97314,-4.45706 -5.72628,-2.86313 -13.40067,6.70033 -3.42395,-1.71197 13.40066,-6.70035 -6.05096,-3.01071 -8.97314,4.45705 -3.01072,-1.47585 8.97314,-4.48657 -5.72628,-2.86314 -13.40067,6.70034 -3.42397,-1.71198 13.40068,-6.70034 -6.05097,-3.01072 -8.97313,4.48657 -3.01073,-1.50536 8.97314,-4.45705 -5.72628,-2.89266 -13.43018,6.70033 -3.42396,-1.71197 13.43019,-6.70034 -6.05097,-3.01072 -9.00265,4.48657 -3.01072,-1.50537 9.00265,-4.45704 -5.72628,-2.86315 -13.43019,6.70034 -3.42396,-1.71198 13.4302,-6.70034 z"
     id="rect3869" />
  <path
     style="font-style:normal;font-variant:normal;font-weight:normal;font-stretch:normal;font-size:119.631073px;line-height:1.25;font-family:'Cinzel Decorative Black';-inkscape-font-specification:'Cinzel Decorative Black, ';letter-spacing:0px;word-spacing:0px;fill:#488e9c;fill-opacity:1;stroke:none;stroke-width:0.39197591;stroke-miterlimit:4;stroke-dasharray:none"
     d="m 744.69531,189.17383 c -17.40774,0 -29.00704,2.61709 -41.05859,7.85156 -11.3411,4.97621 -20.14931,12.09642 -26.42969,21.36328 7.2897,10.92541 10.9375,23.9887 10.9375,39.1875 0,14.09275 -3.22625,26.45459 -9.66601,37.09571 2.69001,3.60712 5.83911,6.90986 9.45507,9.90234 14.24266,11.56456 30.71101,17.34766 55.66602,17.34766 25.07677,0.12173 42.11873,-7.36431 51.12695,-22.45899 0.0119,-0.0219 0.0237,-0.043 0.0352,-0.0645 -3.99471,-5.76399 -7.05906,-12.15939 -9.16992,-19.07422 -2.9745,10.42527 -6.6199,17.91923 -10.95118,22.42383 -6.45183,6.81702 -16.8603,10.22656 -31.2246,10.22656 -12.41662,-0.36517 -19.02161,-5.66124 -26.08204,-15.88672 -6.93868,-10.22548 -10.41015,-24.22323 -10.41015,-41.99609 0,-17.89456 3.77488,-31.83439 11.32226,-41.81641 7.54727,-9.98202 14.94682,-14.97266 28.45899,-14.97266 9.982,0 18.96652,1.54178 25.01367,7.85157 5.61717,5.86116 13.06172,14.98111 12.40039,23.94531 -0.16928,2.2946 -1.3013,3.81568 -4.03929,5.59719 1.60178,-0.36108 4.16268,-1.32192 4.99242,-2.56008 5.55887,-12.1296 8.05807,-20.42693 17.13281,-29.58203 -2.00306,-1.30981 -4.24966,-2.63948 -6.8457,-3.99414 -13.1471,-5.59966 -33.25645,-10.38672 -50.66407,-10.38672 z"
     id="path4661"
     inkscape:connector-curvature="0"
     sodipodi:nodetypes="cccscccccccccscscaccccsc" />
  <path
     sodipodi:nodetypes="sccsccccccccssszsscccs"
     inkscape:connector-curvature="0"
     id="path4663"
     d="m 869.23563,189.51167 c -17.40774,0 -28.22345,2.61716 -40.27489,7.85162 -11.92979,5.23448 -21.05978,12.843 -27.38985,22.82498 -6.33008,9.98201 -9.49506,21.85038 -9.49506,35.60609 0,21.05961 7.06067,37.43244 21.18166,49.11868 14.24252,11.56453 29.92781,17.34672 54.88271,17.34672 25.07677,0.12174 42.11864,-7.36483 51.12675,-22.4596 l 1.68016,-29.9066 c -1.21061,-0.0408 0,0 -1.51996,-0.67032 -3.30017,14.98033 -14.80849,28.20906 -20.24563,33.86373 -6.45184,6.81698 -16.85962,10.22579 -31.22403,10.22579 -12.41662,-0.36517 -18.24178,-5.66051 -25.30222,-15.886 -6.93879,-10.22548 -10.40767,-24.22491 -10.40767,-41.99778 0,-17.89455 3.77369,-31.8323 11.32119,-41.81431 7.54716,-9.98201 14.1634,-14.97333 27.67568,-14.97333 9.98189,0 18.32035,2.61718 25.0156,7.85165 6.69526,5.23446 12.81415,16.46635 15.33785,26.29447 1.8868,7.34782 1.27237,11.92796 -1.46108,15.03887 -0.23182,0.26383 1.79429,0.49175 4.00507,-1.926 4.33909,-14.35859 8.13063,-29.13097 10.96726,-42.40368 -2.81003,-1.84177 -6.12861,-3.70235 -10.04157,-5.58529 -13.1471,-5.59965 -28.42435,-8.39969 -45.83197,-8.39969 z"
     style="font-style:normal;font-variant:normal;font-weight:normal;font-stretch:normal;font-size:119.631073px;line-height:1.25;font-family:'Cinzel Decorative Black';-inkscape-font-specification:'Cinzel Decorative Black, ';letter-spacing:0px;word-spacing:0px;fill:#488e9c;fill-opacity:1;stroke:none;stroke-width:0.39197591;stroke-miterlimit:4;stroke-dasharray:none" />
  <path
     inkscape:connector-curvature="0"
     id="path4659"
     style="font-style:normal;font-variant:normal;font-weight:normal;font-stretch:normal;font-size:119.631073px;line-height:1.25;font-family:'Cinzel Decorative Black';-inkscape-font-specification:'Cinzel Decorative Black, ';letter-spacing:0px;word-spacing:0px;fill:#488e9c;fill-opacity:1;stroke:none;stroke-width:0.39197591;stroke-miterlimit:4;stroke-dasharray:none"
     d="m 576.83353,243.38827 q -5.66052,-9.49509 -5.66052,-20.08575 0,-14.6078 10.95587,-23.73769 6.57351,-5.66054 16.25118,-7.48651 5.84313,-0.91299 9.31249,-0.91299 3.65194,0 7.6691,0.18258 4.01715,0 11.68625,2.3738 7.85169,2.37377 15.15561,5.84312 7.30389,3.28676 13.69482,9.12989 6.57351,5.8431 11.50365,12.78183 10.59067,14.97301 10.59067,36.15432 0,30.67644 -22.82473,49.1188 -22.6421,18.25975 -60.0746,18.25975 -37.43254,0 -60.43983,-18.44236 -23.00731,-18.44236 -23.00731,-48.57096 0,-24.83331 15.3382,-42.54528 15.5208,-17.89458 40.35409,-22.09432 l 1.09557,1.826 q -7.48649,7.85168 -12.05144,23.37249 -4.38234,15.33819 -4.38234,33.23277 0,29.03304 11.68626,46.56242 11.68624,17.52936 31.04159,17.52936 19.53795,0 31.22419,-15.88599 11.68624,-15.886 11.68624,-42.36268 0,-16.79899 -4.74754,-30.12861 -4.56492,-13.32963 -12.78181,-19.90313 -8.21689,-6.57353 -17.34677,-6.57353 -11.86885,0 -18.25978,7.12133 -7.48648,8.21689 -7.48648,20.45092 0,6.93871 2.00856,14.79042 z" />
  <path
     style="fill:#488e9c;fill-opacity:1;stroke:none;stroke-width:0.39135963px;stroke-linecap:butt;stroke-linejoin:miter;stroke-opacity:1"
     d="m 935.76924,264.10475 c 9.36373,-3.26323 19.33095,-5.31945 27.39516,-11.18171 l 4.7522,13.1385 -34.94273,5.35659 z"
     id="path4645"
     inkscape:connector-curvature="0"
     sodipodi:nodetypes="ccccc" />
  <path
     sodipodi:nodetypes="ccccc"
     inkscape:connector-curvature="0"
     id="path4647"
     d="m 942.5341,195.0577 c -8.87386,47.37262 -40.45455,121.8677 -58.21996,125.88878 17.53515,-1.95934 0,0 28.82022,-3.78136 17.17728,-31.16507 32.14104,-58.95079 39.83264,-102.62672 z"
     style="fill:#488e9c;fill-opacity:1;stroke:none;stroke-width:0.39135963px;stroke-linecap:butt;stroke-linejoin:miter;stroke-opacity:1" />
  <path
     sodipodi:nodetypes="ccccc"
     inkscape:connector-curvature="0"
     id="path4655"
     d="m 1103.8278,195.0577 43.3291,-3.07498 43.3292,128.86918 h -42.7702 z"
     style="fill:#488e9c;fill-opacity:1;stroke:none;stroke-width:0.39135963px;stroke-linecap:butt;stroke-linejoin:miter;stroke-opacity:1" />
  <path
     sodipodi:nodetypes="ccccc"
     inkscape:connector-curvature="0"
     id="path4657"
     d="m 942.5341,195.0577 43.3291,-3.07498 43.3291,128.86918 h -42.7701 z"
     style="fill:#488e9c;fill-opacity:1;stroke:none;stroke-width:0.39135963px;stroke-linecap:butt;stroke-linejoin:miter;stroke-opacity:1" />
  <path
     style="fill:#488e9c;fill-opacity:1;stroke:none;stroke-width:0.39135963px;stroke-linecap:butt;stroke-linejoin:miter;stroke-opacity:1"
     d="m 1148.8269,315.2395 c -1.9505,1.82804 -6.1359,5.28929 -7.9807,5.70684 l 17.3804,-0.0955 h -8.2361 z"
     id="path6475"
     inkscape:connector-curvature="0"
     sodipodi:nodetypes="ccccc" />
  <path
     sodipodi:nodetypes="ccccc"
     inkscape:connector-curvature="0"
     id="path6480"
     d="m 1032.0267,-177.47113 38.1108,-2.70463 38.1106,113.34855 h -37.6189 z"
     style="fill:#00ff00;fill-opacity:1;stroke:none;stroke-width:0.34422544px;stroke-linecap:butt;stroke-linejoin:miter;stroke-opacity:1" />
  <path
     style="fill:#00ff00;fill-opacity:1;stroke:none;stroke-width:0.34422544px;stroke-linecap:butt;stroke-linejoin:miter;stroke-opacity:1"
     d="m 1107.7564,-177.47113 38.1106,-2.70463 38.1108,113.34855 h -37.6191 z"
     id="path6482"
     inkscape:connector-curvature="0"
     sodipodi:nodetypes="ccccc" />
  <path
     style="fill:#00ff00;fill-opacity:1;stroke:none;stroke-width:0.34422544px;stroke-linecap:butt;stroke-linejoin:miter;stroke-opacity:1"
     d="m 952.29712,-177.47113 38.1107,-2.70463 38.11068,113.34855 h -37.61898 z"
     id="path6484"
     inkscape:connector-curvature="0"
     sodipodi:nodetypes="ccccc" />
  <g
     aria-label="o"
     style="font-style:normal;font-variant:normal;font-weight:normal;font-stretch:normal;font-size:160.82931519px;line-height:1.25;font-family:'Marcellus SC';-inkscape-font-specification:'Marcellus SC';letter-spacing:0px;word-spacing:0px;fill:#00ff00;fill-opacity:1;stroke:none;stroke-width:4.02073288"
     id="text6488">
    <path
       d="m 778.07937,-182.4802 q 20.74698,0 35.70411,6.91566 15.11795,6.91566 23.15942,20.26449 8.04146,13.18801 8.04146,31.36172 0,27.501811 -17.85205,43.102255 -17.85205,15.439614 -49.05294,15.439614 -31.20089,0 -49.05294,-15.439614 -17.69123,-15.600444 -17.69123,-43.102255 0,-27.50181 17.69123,-42.94143 17.85205,-15.60044 49.05294,-15.60044 z m -22.99859,95.69344 q 8.36312,13.348833 22.99859,13.348833 14.7963,0 22.99859,-13.348833 8.36313,-13.34883 8.36313,-37.15157 0,-23.80274 -8.36313,-37.15157 -8.20229,-13.34884 -22.99859,-13.34884 -14.63547,0 -22.99859,13.34884 -8.2023,13.34883 -8.2023,37.15157 0,23.80274 8.2023,37.15157 z"
       style="font-style:normal;font-variant:normal;font-weight:normal;font-stretch:normal;font-family:'Cinzel Decorative Black';-inkscape-font-specification:'Cinzel Decorative Black, ';fill:#00ff00;stroke-width:4.02073288"
       id="path6521" />
  </g>
  <g
     aria-label="o"
     style="font-style:normal;font-variant:normal;font-weight:normal;font-stretch:normal;font-size:160.82931519px;line-height:1.25;font-family:'Marcellus SC';-inkscape-font-specification:'Marcellus SC';letter-spacing:0px;word-spacing:0px;fill:#00ff00;fill-opacity:1;stroke:none;stroke-width:4.02073288"
     id="text6492">
    <path
       d="m 888.07937,-182.4802 q 20.74698,0 35.70411,6.91566 15.11795,6.91566 23.15942,20.26449 8.04146,13.18801 8.04146,31.36172 0,27.501811 -17.85205,43.102255 -17.85205,15.439614 -49.05294,15.439614 -31.20089,0 -49.05294,-15.439614 -17.69123,-15.600444 -17.69123,-43.102255 0,-27.50181 17.69123,-42.94143 17.85205,-15.60044 49.05294,-15.60044 z m -22.99859,95.69344 q 8.36312,13.348833 22.99859,13.348833 14.7963,0 22.99859,-13.348833 8.36313,-13.34883 8.36313,-37.15157 0,-23.80274 -8.36313,-37.15157 -8.20229,-13.34884 -22.99859,-13.34884 -14.63547,0 -22.99859,13.34884 -8.2023,13.34883 -8.2023,37.15157 0,23.80274 8.2023,37.15157 z"
       style="font-style:normal;font-variant:normal;font-weight:normal;font-stretch:normal;font-family:'Cinzel Decorative Black';-inkscape-font-specification:'Cinzel Decorative Black, ';fill:#00ff00;stroke-width:4.02073288"
       id="path6518" />
  </g>
  <g
     aria-label="o"
     style="font-style:normal;font-variant:normal;font-weight:normal;font-stretch:normal;font-size:160.82931519px;line-height:1.25;font-family:'Marcellus SC';-inkscape-font-specification:'Marcellus SC';letter-spacing:0px;word-spacing:0px;fill:#00ff00;fill-opacity:1;stroke:none;stroke-width:4.02073288"
     id="text6496">
    <path
       d="m 648.07937,-182.4802 q 20.74698,0 35.70411,6.91566 15.11795,6.91566 23.15942,20.26449 8.04146,13.18801 8.04146,31.36172 0,27.501811 -17.85205,43.102255 -17.85205,15.439614 -49.05294,15.439614 -31.20089,0 -49.05294,-15.439614 -17.69123,-15.600444 -17.69123,-43.102255 0,-27.50181 17.69123,-42.94143 17.85205,-15.60044 49.05294,-15.60044 z m -22.99859,95.69344 q 8.36312,13.348833 22.99859,13.348833 14.7963,0 22.99859,-13.348833 8.36313,-13.34883 8.36313,-37.15157 0,-23.80274 -8.36313,-37.15157 -8.20229,-13.34884 -22.99859,-13.34884 -14.63547,0 -22.99859,13.34884 -8.2023,13.34883 -8.2023,37.15157 0,23.80274 8.2023,37.15157 z"
       style="font-style:normal;font-variant:normal;font-weight:normal;font-stretch:normal;font-family:'Cinzel Decorative Black';-inkscape-font-specification:'Cinzel Decorative Black, ';fill:#00ff00;stroke-width:4.02073288"
       id="path6524" />
  </g>
  <path
     sodipodi:nodetypes="ccccc"
     inkscape:connector-curvature="0"
     id="path6511"
     d="m 1071.8726,315.2395 c -1.9505,1.82804 -6.1359,5.28929 -7.9806,5.70684 l 17.3803,-0.0955 h -8.236 z"
     style="fill:#488e9c;fill-opacity:1;stroke:none;stroke-width:0.39135963px;stroke-linecap:butt;stroke-linejoin:miter;stroke-opacity:1" />
  <path
     style="fill:#488e9c;fill-opacity:1;stroke:none;stroke-width:0.39135963px;stroke-linecap:butt;stroke-linejoin:miter;stroke-opacity:1"
     d="m 986.9184,315.2395 c -1.9505,1.82804 -6.1359,5.28929 -7.9807,5.70684 l 17.3803,-0.0955 h -8.236 z"
     id="path6513"
     inkscape:connector-curvature="0"
     sodipodi:nodetypes="ccccc" />
  <path
     sodipodi:nodetypes="cccccc"
     inkscape:connector-curvature="0"
     id="path4660"
     d="m 1106.1396,196.09001 21.3642,-1.71676 c -12.7057,59.28954 -17.4056,111.3706 -6,126.47989 l -35.3642,-0.0809 c 0,-42.09252 -0.9661,44.7042 20,-124.68222 z"
     style="fill:#488e9c;fill-opacity:1;stroke-width:0.85280287" />
  <path
     style="fill:#488e9c;fill-opacity:1;stroke:none;stroke-width:0.39135963px;stroke-linecap:butt;stroke-linejoin:miter;stroke-opacity:1"
     d="m 1027.1809,195.0577 43.3292,-3.07498 43.3291,128.86918 h -42.77 z"
     id="path4653"
     inkscape:connector-curvature="0"
     sodipodi:nodetypes="ccccc" />
  <path
     style="fill:#488e9c;fill-opacity:1;stroke-width:0.85280287"
     d="m 1051.5039,194.37305 -21.3652,1.71679 c -3.8477,31.0857 -6.951,53.48183 -9.4629,69.69141 l 18.5137,55.06641 8.3144,0.006 c -12.3589,-22.74178 -9.1501,-70.73759 4,-126.48047 z"
     id="path5975"
     inkscape:connector-curvature="0"
     sodipodi:nodetypes="ccccccc" />
</svg>
