<?xml version="1.0" encoding="UTF-8" standalone="no"?>
<svg
   xmlns:dc="http://purl.org/dc/elements/1.1/"
   xmlns:cc="http://creativecommons.org/ns#"
   xmlns:rdf="http://www.w3.org/1999/02/22-rdf-syntax-ns#"
   xmlns:svg="http://www.w3.org/2000/svg"
   xmlns="http://www.w3.org/2000/svg"
   xmlns:sodipodi="http://sodipodi.sourceforge.net/DTD/sodipodi-0.dtd"
   xmlns:inkscape="http://www.inkscape.org/namespaces/inkscape"
   width="22"
   height="22"
   viewBox="0 0 22 22"
   version="1.1"
   id="svg2"
   inkscape:version="0.91 r13725"
   sodipodi:docname="delete.svg"
   inkscape:export-filename="delete.png"
   inkscape:export-xdpi="81.82"
   inkscape:export-ydpi="81.82">
  <metadata
     id="metadata14">
    <rdf:RDF>
      <cc:Work
         rdf:about="">
        <dc:format>image/svg+xml</dc:format>
        <dc:type
           rdf:resource="http://purl.org/dc/dcmitype/StillImage" />
        <dc:title>album_collection</dc:title>
      </cc:Work>
    </rdf:RDF>
  </metadata>
  <sodipodi:namedview
     pagecolor="#ffffff"
     bordercolor="#666666"
     borderopacity="1"
     objecttolerance="10"
     gridtolerance="10"
     guidetolerance="10"
     inkscape:pageopacity="0"
     inkscape:pageshadow="2"
     inkscape:window-width="1920"
     inkscape:window-height="1058"
     id="namedview12"
     showgrid="false"
     inkscape:zoom="4"
     inkscape:cx="-74.942376"
     inkscape:cy="-13.337452"
     inkscape:window-x="-8"
     inkscape:window-y="-8"
     inkscape:window-maximized="1"
     inkscape:current-layer="svg2" />
  <title
     id="title4">album_collection</title>
  <description
     id="description6">Created with Sketch (http://www.bohemiancoding.com/sketch)</description>
  <defs
     id="defs8" />
  <path
     style="fill:#cbb0b0;fill-opacity:1;stroke:none;stroke-width:0.96765244;stroke-linejoin:miter;stroke-opacity:1"
     d="M 11,21.623047 A 10.622776,10.622776 0 0 0 21.623047,11 10.622776,10.622776 0 0 0 11,0.37695312 10.622776,10.622776 0 0 0 0.37695312,11 10.622776,10.622776 0 0 0 11,21.623047 Z m 0,-1.855469 A 8.7666206,8.7666206 0 0 1 2.2324221,11 8.7666206,8.7666206 0 0 1 11,2.2324221 8.7666206,8.7666206 0 0 1 19.767578,11 8.7666206,8.7666206 0 0 1 11,19.767578 Z"
     id="path4143"
     inkscape:connector-curvature="0" />
  <rect
     style="fill:#cbb0b0;fill-opacity:1;stroke:none;stroke-linejoin:miter;stroke-opacity:1"
     id="rect4697"
     width="12.566967"
     height="3.0719254"
     x="9.2728662"
     y="-1.5359629"
     ry="1.5359627"
     transform="matrix(0.70710678,0.70710678,-0.70710678,0.70710678,0,0)" />
  <rect
     ry="1.5359627"
     y="-17.092312"
     x="-6.2834849"
     height="3.0719254"
     width="12.566967"
     id="rect4708"
     style="fill:#cbb0b0;fill-opacity:1;stroke:none;stroke-linejoin:miter;stroke-opacity:1"
     transform="matrix(-0.70710678,0.70710678,-0.70710678,-0.70710678,0,0)" />
</svg>
