<?xml version="1.0" encoding="UTF-8" standalone="no"?>
<svg
   xmlns:dc="http://purl.org/dc/elements/1.1/"
   xmlns:cc="http://creativecommons.org/ns#"
   xmlns:rdf="http://www.w3.org/1999/02/22-rdf-syntax-ns#"
   xmlns:svg="http://www.w3.org/2000/svg"
   xmlns="http://www.w3.org/2000/svg"
   xmlns:sodipodi="http://sodipodi.sourceforge.net/DTD/sodipodi-0.dtd"
   xmlns:inkscape="http://www.inkscape.org/namespaces/inkscape"
   version="1.1"
   x="0px"
   y="0px"
   viewBox="0 0 27.260742 27.262573"
   xml:space="preserve"
   id="svg2"
   inkscape:version="0.92.1 r"
   sodipodi:docname="no-workset.svg"
   width="29.078125"
   height="29.080078"><metadata
     id="metadata20"><rdf:RDF><cc:Work
         rdf:about=""><dc:format>image/svg+xml</dc:format><dc:type
           rdf:resource="http://purl.org/dc/dcmitype/StillImage" /><dc:title></dc:title></cc:Work></rdf:RDF></metadata><defs
     id="defs18" /><sodipodi:namedview
     pagecolor="#ffffff"
     bordercolor="#666666"
     borderopacity="1"
     objecttolerance="10"
     gridtolerance="10"
     guidetolerance="10"
     inkscape:pageopacity="0"
     inkscape:pageshadow="2"
     inkscape:window-width="1920"
     inkscape:window-height="1172"
     id="namedview16"
     showgrid="false"
     inkscape:zoom="11.793187"
     inkscape:cx="21.09014"
     inkscape:cy="24.354082"
     inkscape:window-x="1920"
     inkscape:window-y="0"
     inkscape:window-maximized="1"
     inkscape:current-layer="g4" /><g
     id="g4"
     style="fill:#004a4a;fill-opacity:1"
     transform="matrix(1.0247175,0,0,1.0247175,-0.75986703,1.7768762)"><path
       style="stroke-width:1;fill:#cccccc"
       d="m 2.8320312,0.98828125 c -1.2947245,0 -2.33789058,1.04316615 -2.33789058,2.33789065 V 27.730469 c 0,1.294724 1.04316608,2.33789 2.33789058,2.33789 H 27.236328 c 1.294725,0 2.335938,-1.043166 2.335938,-2.33789 V 3.3261719 c 0,-1.2947245 -1.041213,-2.33789065 -2.335938,-2.33789065 z m 0,1.52734375 H 27.236328 c 0.477239,0 0.810547,0.3349848 0.810547,0.8105469 V 27.730469 c 0,0.475563 -0.333308,0.808593 -0.810547,0.808593 H 2.8320312 c -0.4772396,0 -0.8105468,-0.33303 -0.8105468,-0.808593 V 3.3261719 c 0,-0.4755628 0.3333072,-0.8105469 0.8105468,-0.8105469 z"
       id="rect226"
       inkscape:connector-curvature="0"
       transform="matrix(0.91488629,0,0,0.91488629,0.28945558,-2.6381806)" /><path
       style="fill:#cccccc;stroke-width:1.36156869"
       d="M 24.900391,2.4941406 2.4921875,24.902344 v 0.933594 c 0,0.440263 0.3101376,0.75 0.7519531,0.75 H 4.1777344 L 26.585938,4.1777344 V 3.2441406 c -10e-7,-0.4402626 -0.308186,-0.75 -0.75,-0.75 z"
       id="rect263"
       inkscape:connector-curvature="0"
       sodipodi:nodetypes="ccsscccsc"
       transform="matrix(0.91488629,0,0,0.91488629,0.74153806,-1.7340157)" /><path
       style="fill:#e6e6e6;fill-opacity:1;fill-rule:evenodd;stroke:none;stroke-width:0.91077352"
       d="M 6.3417969 5.4316406 L 6.3417969 6.34375 L 19.666016 6.34375 L 20.578125 5.4316406 L 6.3417969 5.4316406 z M 5.4316406 7.2539062 L 5.4316406 8.1640625 L 17.845703 8.1640625 L 18.755859 7.2539062 L 5.4316406 7.2539062 z M 4.6484375 9.0761719 C 4.5777708 9.0761719 4.5214844 9.128826 4.5214844 9.1933594 L 4.5214844 21.488281 L 12.748047 13.261719 L 12.748047 10.957031 C 12.748047 10.755295 12.911715 10.591797 13.113281 10.591797 C 13.315018 10.591797 13.478516 10.755282 13.478516 10.957031 L 13.478516 12.53125 L 16.933594 9.0761719 L 4.6484375 9.0761719 z M 23.015625 9.0761719 L 16.728516 15.363281 L 20.101562 21.474609 C 20.106044 21.481375 20.107393 21.488989 20.111328 21.496094 C 20.118028 21.508106 20.125831 21.519967 20.130859 21.533203 C 20.135232 21.543893 20.137127 21.555432 20.140625 21.566406 C 20.143904 21.578047 20.148095 21.589574 20.150391 21.601562 C 20.152686 21.614526 20.153204 21.627793 20.154297 21.640625 C 20.154734 21.64926 20.15625 21.657381 20.15625 21.666016 L 20.15625 21.673828 C 20.155922 21.68642 20.153983 21.698553 20.152344 21.710938 C 20.151032 21.722762 20.149108 21.734857 20.146484 21.746094 C 20.144298 21.75604 20.140216 21.765444 20.136719 21.775391 C 20.132849 21.788179 20.130465 21.800509 20.125 21.8125 C 20.121437 21.821343 20.115919 21.829256 20.111328 21.837891 C 20.105109 21.849728 20.097823 21.862062 20.089844 21.873047 C 20.084149 21.881299 20.076761 21.888724 20.070312 21.896484 C 20.061581 21.90712 20.055196 21.918116 20.044922 21.927734 C 20.038549 21.934085 20.030759 21.939412 20.023438 21.945312 C 20.011993 21.954625 19.99916 21.964021 19.986328 21.972656 C 19.984798 21.97364 19.984389 21.975362 19.982422 21.976562 C 19.976323 21.980716 19.968902 21.982721 19.962891 21.986328 C 19.949927 21.993477 19.937655 22.000504 19.923828 22.005859 C 19.913313 22.009904 19.90161 22.012346 19.890625 22.015625 C 19.878602 22.019232 19.867853 22.021142 19.855469 22.023438 C 19.842516 22.025731 19.829643 22.026317 19.816406 22.027344 C 19.807935 22.028109 19.79976 22.03125 19.791016 22.03125 L 10.060547 22.03125 L 8.4433594 23.648438 L 24.429688 23.648438 C 24.50035 23.648438 24.556641 23.595778 24.556641 23.53125 L 24.556641 9.1933594 C 24.556641 9.1285765 24.500155 9.0761719 24.429688 9.0761719 L 23.015625 9.0761719 z M 16.191406 15.900391 L 15.580078 16.511719 L 17.779297 20.5 L 11.591797 20.5 L 10.791016 21.300781 L 19.171875 21.300781 L 16.191406 15.900391 z "
       transform="matrix(0.91488629,0,0,0.91488629,0.74153806,-1.7340157)"
       id="album_collection" /></g></svg>