<?xml version="1.0" encoding="UTF-8" standalone="no"?>
<svg
   xmlns:dc="http://purl.org/dc/elements/1.1/"
   xmlns:cc="http://creativecommons.org/ns#"
   xmlns:rdf="http://www.w3.org/1999/02/22-rdf-syntax-ns#"
   xmlns:svg="http://www.w3.org/2000/svg"
   xmlns="http://www.w3.org/2000/svg"
   xmlns:sodipodi="http://sodipodi.sourceforge.net/DTD/sodipodi-0.dtd"
   xmlns:inkscape="http://www.inkscape.org/namespaces/inkscape"
   version="1.1"
   width="32"
   height="32"
   data-icon="people"
   data-container-transform="translate(0 8)"
   viewBox="0 0 32 32"
   id="svg2"
   inkscape:version="0.91 r13725"
   sodipodi:docname="qrcode.svg"
   inkscape:export-filename="architecture.png"
   inkscape:export-xdpi="56.25"
   inkscape:export-ydpi="56.25">
  <metadata
     id="metadata10">
    <rdf:RDF>
      <cc:Work
         rdf:about="">
        <dc:format>image/svg+xml</dc:format>
        <dc:type
           rdf:resource="http://purl.org/dc/dcmitype/StillImage" />
        <dc:title></dc:title>
      </cc:Work>
    </rdf:RDF>
  </metadata>
  <defs
     id="defs8" />
  <sodipodi:namedview
     pagecolor="#ffffff"
     bordercolor="#666666"
     borderopacity="1"
     objecttolerance="10"
     gridtolerance="10"
     guidetolerance="10"
     inkscape:pageopacity="0"
     inkscape:pageshadow="2"
     inkscape:window-width="1680"
     inkscape:window-height="1027"
     id="namedview6"
     showgrid="false"
     inkscape:zoom="16"
     inkscape:cx="24.883945"
     inkscape:cy="8.7591334"
     inkscape:window-x="5752"
     inkscape:window-y="1102"
     inkscape:window-maximized="1"
     inkscape:current-layer="svg2" />
  <path
     style="opacity:1;fill:#6aa3ae;fill-opacity:1;stroke:none"
     d="M 10.960938 1.0625 L 10.960938 2.1972656 L 10.960938 3.2890625 L 10.960938 4.4179688 L 12.095703 4.4179688 L 13.207031 4.4179688 L 14.296875 4.4179688 L 14.296875 5.5097656 L 14.296875 6.6347656 L 14.296875 7.7207031 L 13.207031 7.7207031 L 12.095703 7.7207031 L 10.960938 7.7207031 L 10.960938 8.8554688 L 10.960938 9.9492188 L 10.960938 11.029297 L 9.8828125 11.029297 L 8.7714844 11.029297 L 7.6367188 11.029297 L 7.6367188 12.164062 L 7.6367188 13.291016 L 7.6367188 14.384766 L 7.6367188 15.507812 L 7.6367188 16.601562 L 7.6367188 17.6875 L 6.546875 17.6875 L 5.4355469 17.6875 L 4.3242188 17.6875 L 4.3242188 16.59375 L 4.3242188 15.466797 L 4.3242188 14.373047 L 4.3242188 13.25 L 4.3242188 12.15625 L 4.3242188 11.029297 L 3.2109375 11.029297 L 2.078125 11.029297 L 0.94335938 11.029297 L 0.94335938 12.164062 L 0.94335938 13.291016 L 0.94335938 14.384766 L 0.94335938 15.507812 L 0.94335938 16.601562 L 0.94335938 17.728516 L 0.94335938 18.822266 L 0.94335938 19.929688 L 0.94335938 21.007812 L 2.078125 21.007812 L 3.2109375 21.007812 L 4.3242188 21.007812 L 5.4355469 21.007812 L 6.546875 21.007812 L 7.6601562 21.007812 L 7.6601562 19.873047 L 7.6601562 18.794922 L 7.6601562 17.728516 L 8.7714844 17.728516 L 9.8828125 17.728516 L 10.960938 17.728516 L 10.960938 18.822266 L 10.960938 19.929688 L 10.960938 21.050781 L 10.960938 22.144531 L 10.960938 23.273438 L 10.960938 24.365234 L 10.960938 25.490234 L 10.960938 26.582031 L 10.960938 27.710938 L 10.960938 28.779297 L 10.960938 29.871094 L 10.960938 31 L 12.095703 31 L 13.207031 31 L 14.320312 31 L 14.320312 29.865234 L 14.320312 28.738281 L 14.320312 27.710938 L 15.431641 27.710938 L 16.542969 27.710938 L 17.644531 27.710938 L 17.644531 28.779297 L 17.644531 29.871094 L 17.644531 31 L 18.777344 31 L 19.890625 31 L 21.001953 31 L 21.001953 30.984375 L 22.091797 30.984375 L 23.203125 30.984375 L 24.316406 30.984375 L 25.417969 30.984375 L 26.529297 30.984375 L 27.607422 30.984375 L 27.607422 29.849609 L 27.607422 28.722656 L 27.607422 27.628906 L 26.529297 27.628906 L 25.417969 27.628906 L 24.316406 27.628906 L 24.316406 26.560547 L 24.316406 25.433594 L 24.316406 24.351562 L 25.427734 24.351562 L 26.539062 24.351562 L 27.628906 24.351562 L 27.628906 25.474609 L 27.628906 26.566406 L 27.628906 27.695312 L 28.763672 27.695312 L 29.875 27.695312 L 30.953125 27.695312 L 30.953125 26.560547 L 30.953125 25.433594 L 30.953125 24.339844 L 29.875 24.339844 L 28.763672 24.339844 L 27.652344 24.339844 L 27.652344 23.216797 L 27.652344 22.123047 L 27.652344 21.037109 L 28.763672 21.037109 L 29.875 21.037109 L 30.953125 21.037109 L 30.953125 19.902344 L 30.953125 18.794922 L 30.953125 17.6875 L 30.953125 16.59375 L 30.953125 15.466797 L 30.953125 14.373047 L 29.875 14.373047 L 28.763672 14.373047 L 27.652344 14.373047 L 26.539062 14.373047 L 25.427734 14.373047 L 24.316406 14.373047 L 24.316406 13.25 L 24.316406 12.15625 L 24.316406 11.029297 L 23.203125 11.029297 L 22.091797 11.029297 L 20.957031 11.029297 L 20.957031 12.164062 L 20.957031 13.291016 L 20.957031 14.373047 L 19.878906 14.373047 L 18.767578 14.373047 L 17.65625 14.373047 L 17.65625 13.25 L 17.65625 12.15625 L 17.65625 11.029297 L 16.542969 11.029297 L 15.431641 11.029297 L 14.320312 11.029297 L 14.320312 9.9355469 L 14.320312 8.8144531 L 14.320312 7.7265625 L 15.431641 7.7265625 L 16.542969 7.7265625 L 17.65625 7.7265625 L 18.767578 7.7265625 L 19.878906 7.7265625 L 20.992188 7.7265625 L 20.992188 6.59375 L 20.992188 5.5 L 20.992188 4.3769531 L 20.992188 3.2832031 L 20.992188 2.15625 L 20.992188 1.0625 L 19.878906 1.0625 L 18.767578 1.0625 L 17.632812 1.0625 L 17.632812 2.1972656 L 17.632812 3.2890625 L 17.632812 4.3769531 L 16.542969 4.3769531 L 15.431641 4.3769531 L 14.320312 4.3769531 L 14.320312 3.2832031 L 14.320312 2.15625 L 14.320312 1.0625 L 13.207031 1.0625 L 12.095703 1.0625 L 10.960938 1.0625 z M 10.996094 14.384766 L 12.095703 14.384766 L 13.207031 14.384766 L 14.320312 14.384766 L 15.431641 14.384766 L 16.542969 14.384766 L 17.632812 14.384766 L 17.632812 15.507812 L 17.632812 16.601562 L 17.632812 17.728516 L 18.767578 17.728516 L 19.878906 17.728516 L 20.957031 17.728516 L 20.957031 18.822266 L 20.957031 19.929688 L 20.957031 21.009766 L 19.878906 21.009766 L 18.767578 21.009766 L 17.632812 21.009766 L 17.632812 22.144531 L 17.632812 23.273438 L 17.632812 24.355469 L 16.542969 24.355469 L 15.431641 24.355469 L 14.320312 24.355469 L 14.320312 23.230469 L 14.320312 22.138672 L 14.320312 21.009766 L 14.320312 19.917969 L 14.320312 18.794922 L 14.320312 17.6875 L 13.207031 17.6875 L 12.095703 17.6875 L 10.996094 17.6875 L 10.996094 16.59375 L 10.996094 15.466797 L 10.996094 14.384766 z M 20.992188 14.384766 L 22.091797 14.384766 L 23.203125 14.384766 L 24.292969 14.384766 L 24.292969 15.507812 L 24.292969 16.601562 L 24.292969 17.6875 L 23.203125 17.6875 L 22.091797 17.6875 L 20.992188 17.6875 L 20.992188 16.59375 L 20.992188 15.466797 L 20.992188 14.384766 z M 24.316406 17.728516 L 25.427734 17.728516 L 26.539062 17.728516 L 27.628906 17.728516 L 27.628906 18.822266 L 27.628906 19.929688 L 27.628906 20.996094 L 26.539062 20.996094 L 25.427734 20.996094 L 24.316406 20.996094 L 24.316406 19.902344 L 24.316406 18.794922 L 24.316406 17.728516 z M 17.65625 24.365234 L 18.767578 24.365234 L 19.878906 24.365234 L 20.957031 24.365234 L 20.957031 25.474609 L 20.957031 26.566406 L 20.957031 27.644531 L 19.890625 27.644531 L 18.777344 27.644531 L 17.65625 27.644531 L 17.65625 26.576172 L 17.65625 25.447266 L 17.65625 24.365234 z "
     id="rect4718" />
  <path
     inkscape:connector-curvature="0"
     style="opacity:1;fill:#6aa3ae;fill-opacity:1;stroke:none"
     d="m 0.94420847,1.0625 0,8.7313333 8.73133383,0 0,-8.7313333 -8.73133383,0 z m 1.17656263,1.176563 6.3782081,0 0,6.3782073 -6.3782081,0 0,-6.3782073 z"
     id="path5842" />
  <rect
     style="opacity:1;fill:#6aa3ae;fill-opacity:1;stroke:none"
     id="rect5844"
     width="3.5916123"
     height="3.5916123"
     x="3.5140688"
     y="3.6323605" />
  <path
     id="path5846"
     d="m 0.94420847,22.268311 0,8.731333 8.73133383,0 0,-8.731333 -8.73133383,0 z m 1.17656263,1.176563 6.3782081,0 0,6.378207 -6.3782081,0 0,-6.378207 z"
     style="opacity:1;fill:#6aa3ae;fill-opacity:1;stroke:none"
     inkscape:connector-curvature="0" />
  <rect
     y="24.838171"
     x="3.5140688"
     height="3.5916123"
     width="3.5916123"
     id="rect5848"
     style="opacity:1;fill:#6aa3ae;fill-opacity:1;stroke:none" />
  <path
     inkscape:connector-curvature="0"
     style="opacity:1;fill:#6aa3ae;fill-opacity:1;stroke:none"
     d="m 22.221594,1.0625 0,8.7313333 8.731333,0 0,-8.7313333 -8.731333,0 z m 1.176562,1.1765634 6.378209,0 0,6.3782066 -6.378209,0 0,-6.3782066 z"
     id="path5940" />
  <rect
     style="opacity:1;fill:#6aa3ae;fill-opacity:1;stroke:none"
     id="rect5942"
     width="3.5916123"
     height="3.5916123"
     x="24.791454"
     y="3.6323605" />
</svg>
