<?xml version="1.0" encoding="UTF-8" standalone="no"?>
<svg
   xmlns:dc="http://purl.org/dc/elements/1.1/"
   xmlns:cc="http://creativecommons.org/ns#"
   xmlns:rdf="http://www.w3.org/1999/02/22-rdf-syntax-ns#"
   xmlns:svg="http://www.w3.org/2000/svg"
   xmlns="http://www.w3.org/2000/svg"
   xmlns:sodipodi="http://sodipodi.sourceforge.net/DTD/sodipodi-0.dtd"
   xmlns:inkscape="http://www.inkscape.org/namespaces/inkscape"
   version="1.1"
   id="Layer_2"
   x="0px"
   y="0px"
   width="100px"
   height="100px"
   viewBox="0 0 100 100"
   enable-background="new 0 0 100 100"
   xml:space="preserve"
   inkscape:version="0.91 r13725"
   sodipodi:docname="experiment_large.svg"
   inkscape:export-filename="Z:\projects\occam\Large-Icons\experiment_large.png"
   inkscape:export-xdpi="86.400002"
   inkscape:export-ydpi="86.400002"><metadata
     id="metadata17"><rdf:RDF><cc:Work
         rdf:about=""><dc:format>image/svg+xml</dc:format><dc:type
           rdf:resource="http://purl.org/dc/dcmitype/StillImage" /><dc:title></dc:title></cc:Work></rdf:RDF></metadata><defs
     id="defs15"><marker
       inkscape:stockid="TriangleInL"
       orient="auto"
       refY="0.0"
       refX="0.0"
       id="TriangleInL"
       style="overflow:visible"><path
         id="path3916"
         d="M 5.77,0.0 L -2.88,5.0 L -2.88,-5.0 L 5.77,0.0 z "
         style="fill-rule:evenodd;stroke:#000000;stroke-width:1.0pt"
         transform="scale(-0.8)" /></marker><marker
       inkscape:stockid="Arrow2Lstart"
       orient="auto"
       refY="0.0"
       refX="0.0"
       id="Arrow2Lstart"
       style="overflow:visible"><path
         id="path3801"
         style="fill-rule:evenodd;stroke-width:0.62500000;stroke-linejoin:round"
         d="M 8.7185878,4.0337352 L -2.2072895,0.016013256 L 8.7185884,-4.0017078 C 6.9730900,-1.6296469 6.9831476,1.6157441 8.7185878,4.0337352 z "
         transform="scale(1.1) translate(1,0)" /></marker><marker
       inkscape:stockid="Arrow1Lstart"
       orient="auto"
       refY="0.0"
       refX="0.0"
       id="Arrow1Lstart"
       style="overflow:visible"><path
         id="path3783"
         d="M 0.0,0.0 L 5.0,-5.0 L -12.5,0.0 L 5.0,5.0 L 0.0,0.0 z "
         style="fill-rule:evenodd;stroke:#000000;stroke-width:1.0pt"
         transform="scale(0.8) translate(12.5,0)" /></marker></defs><sodipodi:namedview
     pagecolor="#ffffff"
     bordercolor="#666666"
     borderopacity="1"
     objecttolerance="10"
     gridtolerance="10"
     guidetolerance="10"
     inkscape:pageopacity="0"
     inkscape:pageshadow="2"
     inkscape:window-width="1920"
     inkscape:window-height="1058"
     id="namedview13"
     showgrid="false"
     inkscape:zoom="2.8284271"
     inkscape:cx="11.19385"
     inkscape:cy="19.732749"
     inkscape:window-x="-8"
     inkscape:window-y="-8"
     inkscape:window-maximized="1"
     inkscape:current-layer="Layer_2" /><path
     d="m 70.458649,80.67234 c 0.01724,-0.03173 0.03724,-0.06208 0.05105,-0.0945 0.02,-0.04415 0.03311,-0.09174 0.0469,-0.13864 0.01241,-0.03656 0.02621,-0.07174 0.0338,-0.108292 0.0097,-0.04138 0.01379,-0.08415 0.01793,-0.127604 0.0062,-0.04553 0.01379,-0.09174 0.01449,-0.137952 0,-0.01034 0.0021,-0.01863 0.0021,-0.02828 0,-0.03173 -0.0076,-0.06208 -0.009,-0.09381 -0.0041,-0.0469 -0.0062,-0.09519 -0.01449,-0.142779 -0.0083,-0.04415 -0.02069,-0.0876 -0.03311,-0.130364 -0.01241,-0.04069 -0.02207,-0.0807 -0.03794,-0.120018 -0.01863,-0.04828 -0.04276,-0.09312 -0.06691,-0.137261 -0.01448,-0.02621 -0.02138,-0.05311 -0.03794,-0.07794 l -13.852342,-25.102948 0,-13.518511 c 0,-0.740797 -0.600777,-1.341574 -1.340885,-1.341574 -0.740107,0 -1.341573,0.600777 -1.341573,1.341574 l 0,13.722679 c 0,0.01793 0.0048,0.03518 0.0055,0.05242 -0.01656,0.267625 0.04276,0.542837 0.193132,0.78839 l 12.92396,23.417879 -34.027692,0 12.923943,-23.418567 c 0.151056,-0.244863 0.210375,-0.520765 0.193132,-0.78839 6.87e-4,-0.01724 0.0055,-0.03449 0.0055,-0.05242 l 0,-13.721991 c 0,-0.740797 -0.600777,-1.341574 -1.341574,-1.341574 -0.740107,0 -1.340884,0.600777 -1.340884,1.341574 l 0,13.518511 -13.853025,25.10226 c -0.387643,0.631126 -0.191062,1.456763 0.440064,1.844405 0.238655,0.146918 0.505591,0.209687 0.765628,0.196581 0.0076,0 0.01379,0.0027 0.02069,0.0027 l 38.484197,0 c 0.03242,0 0.0607,-0.0069 0.09174,-0.0097 0.04828,-0.0034 0.09657,-0.0062 0.144159,-0.01448 0.04553,-0.0083 0.08898,-0.0207 0.133123,-0.0338 0.04001,-0.01173 0.07794,-0.02138 0.116569,-0.03656 0.05105,-0.01931 0.09932,-0.04415 0.146918,-0.07036 0.02207,-0.01379 0.0469,-0.02 0.06967,-0.03518 0.0076,-0.0041 0.01241,-0.0097 0.01863,-0.01379 0.0469,-0.03104 0.08967,-0.06622 0.131744,-0.100704 0.0269,-0.02138 0.05449,-0.04208 0.07794,-0.06484 0.03725,-0.03518 0.06691,-0.0738 0.09933,-0.11312 0.02345,-0.02828 0.04897,-0.05449 0.07035,-0.08484 0.02966,-0.04001 0.05242,-0.08484 0.07518,-0.128294 z"
     id="path3"
     style="fill:#2da0b7;fill-opacity:1"
     inkscape:connector-curvature="0" /><path
     d="m 55.119184,24.21588 c -2.652109,0.01793 -4.78759,2.182385 -4.769657,4.835184 0.01724,2.652798 2.182385,4.78828 4.835184,4.770347 2.652108,-0.01793 4.78759,-2.183076 4.769657,-4.835874 -0.01793,-2.652108 -2.182386,-4.787591 -4.835184,-4.769657 z m 0.05518,8.117729 c -1.829921,0.01241 -3.323931,-1.461592 -3.337036,-3.291512 -0.01311,-1.83061 1.460902,-3.32462 3.291512,-3.337726 1.83061,-0.01241 3.32462,1.462282 3.337035,3.292202 0.01311,1.829921 -1.461591,3.32462 -3.291511,3.337036 z"
     id="path5"
     style="fill:#2da0b7;fill-opacity:1"
     inkscape:connector-curvature="0" /><path
     d="m 65.182712,19.299995 c -1.878204,0.0131 -3.389457,1.545052 -3.377042,3.423255 0.0138,1.877514 1.545052,3.389457 3.422565,3.376352 1.878204,-0.01241 3.389458,-1.545052 3.377042,-3.422566 -0.01241,-1.878203 -1.545741,-3.389456 -3.422565,-3.377041 z m 0.03931,5.74635 c -1.29674,0.009 -2.353444,-1.034632 -2.363101,-2.330682 -0.009,-1.295361 1.034633,-2.353445 2.330683,-2.362412 1.29605,-0.009 2.353444,1.034633 2.362411,2.329993 0.009,1.29605 -1.034632,2.354135 -2.329993,2.363101 z"
     id="path7"
     style="fill:#2da0b7;fill-opacity:1"
     inkscape:connector-curvature="0" /><path
     d="m 65.943512,31.088601 c -0.984281,0.0069 -1.77612,0.809772 -1.769222,1.794053 0.0069,0.98428 0.810462,1.77543 1.794743,1.769222 0.98359,-0.0069 1.775429,-0.809773 1.768532,-1.793364 -0.0069,-0.98497 -0.809773,-1.776809 -1.794053,-1.769911 z m 0.02138,3.010781 c -0.67941,0.0041 -1.233283,-0.542148 -1.238111,-1.221557 -0.0048,-0.678719 0.542147,-1.233282 1.221557,-1.23742 0.679408,-0.0041 1.233281,0.542147 1.23811,1.221556 0.0048,0.679409 -0.543527,1.232593 -1.221556,1.237421 z"
     id="path9"
     style="fill:#2da0b7;fill-opacity:1"
     inkscape:connector-curvature="0" /><polygon
     points="45.123,61.015 54.876,61.015 70.283,88.936 29.716,88.936 "
     id="polygon11"
     style="fill:#5ec2da;fill-opacity:1"
     transform="matrix(0.68975514,0,0,0.68975514,15.512063,15.851219)"
     inkscape:export-xdpi="86.400002"
     inkscape:export-ydpi="86.400002" /></svg>