<?xml version="1.0" encoding="UTF-8" standalone="no"?>
<svg
   xmlns:dc="http://purl.org/dc/elements/1.1/"
   xmlns:cc="http://creativecommons.org/ns#"
   xmlns:rdf="http://www.w3.org/1999/02/22-rdf-syntax-ns#"
   xmlns:svg="http://www.w3.org/2000/svg"
   xmlns="http://www.w3.org/2000/svg"
   xmlns:sodipodi="http://sodipodi.sourceforge.net/DTD/sodipodi-0.dtd"
   xmlns:inkscape="http://www.inkscape.org/namespaces/inkscape"
   version="1.1"
   id="Layer_2"
   x="0px"
   y="0px"
   width="100px"
   height="100px"
   viewBox="0 0 100 100"
   enable-background="new 0 0 100 100"
   xml:space="preserve"
   inkscape:version="0.48.4 r9939"
   sodipodi:docname="flask.svg"
   inkscape:export-filename="C:\Users\wilkie\occam\experiment.png"
   inkscape:export-xdpi="20.700001"
   inkscape:export-ydpi="20.700001"><metadata
   id="metadata17"><rdf:RDF><cc:Work
       rdf:about=""><dc:format>image/svg+xml</dc:format><dc:type
         rdf:resource="http://purl.org/dc/dcmitype/StillImage" /><dc:title></dc:title></cc:Work></rdf:RDF></metadata><defs
   id="defs15" /><sodipodi:namedview
   pagecolor="#ffffff"
   bordercolor="#666666"
   borderopacity="1"
   objecttolerance="10"
   gridtolerance="10"
   guidetolerance="10"
   inkscape:pageopacity="0"
   inkscape:pageshadow="2"
   inkscape:window-width="1920"
   inkscape:window-height="1058"
   id="namedview13"
   showgrid="false"
   inkscape:zoom="4.72"
   inkscape:cx="60.043137"
   inkscape:cy="19.233384"
   inkscape:window-x="-8"
   inkscape:window-y="-8"
   inkscape:window-maximized="1"
   inkscape:current-layer="Layer_2" />
<path
   d="m 82.733287,98.871054 c 0.02759,-0.05076 0.05959,-0.09932 0.08167,-0.151191 0.032,-0.07063 0.05297,-0.146775 0.07504,-0.221819 0.01986,-0.05849 0.04194,-0.114772 0.05408,-0.173261 0.01545,-0.06621 0.02207,-0.134637 0.02869,-0.204162 0.0099,-0.07284 0.02207,-0.146776 0.02318,-0.220716 0,-0.01655 0.0033,-0.0298 0.0033,-0.04525 0,-0.05076 -0.01214,-0.09932 -0.01435,-0.150086 -0.0066,-0.07504 -0.0099,-0.152294 -0.02318,-0.228441 -0.01324,-0.07063 -0.03311,-0.140154 -0.05297,-0.208576 -0.01986,-0.06511 -0.03531,-0.129119 -0.0607,-0.192023 -0.0298,-0.07725 -0.06842,-0.148983 -0.107048,-0.219612 -0.02317,-0.04194 -0.03421,-0.08498 -0.0607,-0.124704 L 60.517158,56.567597 V 34.938571 c 0,-1.185242 -0.961216,-2.146459 -2.145356,-2.146459 -1.184139,0 -2.146459,0.961217 -2.146459,2.146459 v 21.955685 c 0,0.02869 0.0077,0.05628 0.0088,0.08387 -0.02649,0.428188 0.06842,0.868516 0.309002,1.26139 l 20.67777,37.467579 H 22.7781 L 43.455842,58.238414 c 0.241683,-0.39177 0.336591,-0.833201 0.309002,-1.261389 0.0011,-0.02759 0.0088,-0.05518 0.0088,-0.08387 V 34.938571 c 0,-1.185242 -0.961216,-2.146459 -2.146459,-2.146459 -1.184139,0 -2.145356,0.961217 -2.145356,2.146459 V 56.567597 L 17.317596,96.730112 c -0.620211,1.009774 -0.305691,2.330757 0.704083,2.950968 0.381838,0.235062 0.808923,0.33549 1.224972,0.31452 0.01214,0 0.02207,0.0044 0.03311,0.0044 H 80.85279 c 0.05187,0 0.09712,-0.01104 0.146776,-0.01545 0.07725,-0.0055 0.154501,-0.0099 0.230648,-0.02317 0.07284,-0.01324 0.142362,-0.03311 0.212991,-0.05408 0.06401,-0.01876 0.124704,-0.03421 0.186504,-0.05849 0.08167,-0.0309 0.158916,-0.07063 0.235063,-0.112565 0.03531,-0.02207 0.07504,-0.032 0.111461,-0.05628 0.01214,-0.0066 0.01986,-0.01545 0.0298,-0.02207 0.07504,-0.04966 0.143466,-0.105944 0.210784,-0.161123 0.04304,-0.03421 0.08718,-0.06732 0.124704,-0.103736 0.05959,-0.05628 0.107047,-0.118083 0.158915,-0.180987 0.03752,-0.04525 0.07835,-0.08718 0.112565,-0.13574 0.04745,-0.06401 0.08387,-0.13574 0.12029,-0.205265 z"
   id="path3"
   style="fill:#195864;fill-opacity:1"
   inkscape:connector-curvature="0" />



<polygon
   points="29.716,88.936 45.123,61.015 54.876,61.015 70.283,88.936 "
   id="polygon11"
   style="fill:#237d8d;fill-opacity:1"
   transform="matrix(1.103578,0,0,1.103578,-5.1788419,-4.8398987)" />
</svg>