<?xml version="1.0" encoding="UTF-8" standalone="no"?>
<svg
   xmlns:sketch="http://www.bohemiancoding.com/sketch/ns"
   xmlns:dc="http://purl.org/dc/elements/1.1/"
   xmlns:cc="http://creativecommons.org/ns#"
   xmlns:rdf="http://www.w3.org/1999/02/22-rdf-syntax-ns#"
   xmlns:svg="http://www.w3.org/2000/svg"
   xmlns="http://www.w3.org/2000/svg"
   xmlns:sodipodi="http://sodipodi.sourceforge.net/DTD/sodipodi-0.dtd"
   xmlns:inkscape="http://www.inkscape.org/namespaces/inkscape"
   width="22"
   height="22"
   viewBox="0 0 22 22"
   version="1.1"
   id="svg2"
   inkscape:version="0.91 r13725"
   sodipodi:docname="group_large.svg"
   inkscape:export-filename="Z:\projects\occam\Large-Icons\group_large.png"
   inkscape:export-xdpi="392.72726"
   inkscape:export-ydpi="392.72726">
  <metadata
     id="metadata14">
    <rdf:RDF>
      <cc:Work
         rdf:about="">
        <dc:format>image/svg+xml</dc:format>
        <dc:type
           rdf:resource="http://purl.org/dc/dcmitype/StillImage" />
        <dc:title>album_collection</dc:title>
      </cc:Work>
    </rdf:RDF>
  </metadata>
  <sodipodi:namedview
     pagecolor="#ffffff"
     bordercolor="#666666"
     borderopacity="1"
     objecttolerance="10"
     gridtolerance="10"
     guidetolerance="10"
     inkscape:pageopacity="0"
     inkscape:pageshadow="2"
     inkscape:window-width="1920"
     inkscape:window-height="1058"
     id="namedview12"
     showgrid="false"
     inkscape:zoom="32"
     inkscape:cx="8.2312073"
     inkscape:cy="12.752711"
     inkscape:window-x="-8"
     inkscape:window-y="-8"
     inkscape:window-maximized="1"
     inkscape:current-layer="svg2" />
  <title
     id="title4">album_collection</title>
  <description
     id="description6">Created with Sketch (http://www.bohemiancoding.com/sketch)</description>
  <defs
     id="defs8" />
  <path
     inkscape:connector-curvature="0"
     style="fill:#2da0b7;fill-opacity:1;fill-rule:evenodd;stroke:none"
     sketch:type="MSShapeGroup"
     id="album_collection"
     d="M 0.14048767,6 C 0.06289847,6 0,6.0579357 0,6.1287911 L 0,21.871209 C 0,21.942338 0.06311035,22 0.14048767,22 L 21.859512,22 C 21.937101,22 22,21.942064 22,21.871209 L 22,6.1287911 C 22,6.0576617 21.93689,6 21.859512,6 Z M 1,4 1,5 21,5 21,4 Z"
     sodipodi:nodetypes="sssssssssccccc" />
  <path
     inkscape:connector-curvature="0"
     d="m 15.412946,20.322445 c 0.0037,-0.0068 0.0081,-0.01338 0.01096,-0.02038 0.0044,-0.0095 0.0071,-0.01978 0.01016,-0.02991 0.0027,-0.0079 0.0056,-0.01548 0.0073,-0.02336 0.0021,-0.0089 0.0029,-0.01815 0.0039,-0.02752 0.0013,-0.0098 0.0029,-0.01978 0.0031,-0.02976 0,-0.0023 4.46e-4,-0.004 4.46e-4,-0.0061 0,-0.0068 -0.0016,-0.01338 -0.0019,-0.02023 -8.93e-4,-0.01016 -0.0013,-0.02052 -0.0031,-0.03079 -0.0018,-0.0095 -0.0045,-0.0189 -0.0071,-0.02812 -0.0027,-0.0087 -0.0048,-0.01741 -0.0082,-0.02589 -0.004,-0.01048 -0.0092,-0.02009 -0.01451,-0.0296 -0.0031,-0.0056 -0.0047,-0.01145 -0.0082,-0.01682 L 12.417765,14.619341 V 11.70346 c 0,-0.159789 -0.129592,-0.289371 -0.289223,-0.289371 -0.159644,0 -0.289372,0.129592 -0.289372,0.289371 v 2.959919 c 0,0.0039 0.001,0.0076 0.0012,0.01129 -0.0035,0.05772 0.0092,0.117097 0.04166,0.170052 l 2.787636,5.051131 H 7.3301927 l 2.7876363,-5.051279 c 0.03258,-0.05282 0.04538,-0.112325 0.04166,-0.170052 1.49e-4,-0.0037 0.0012,-0.0074 0.0012,-0.01129 V 11.70346 c 0,-0.159789 -0.129592,-0.289371 -0.2893713,-0.289371 -0.159644,0 -0.289223,0.129592 -0.289223,0.289371 v 2.915881 l -2.988038,5.414444 c -0.08361,0.136137 -0.04121,0.314217 0.09491,0.397831 0.05148,0.0317 0.109051,0.04522 0.165143,0.0424 0.0016,0 0.0029,5.95e-4 0.0045,5.95e-4 h 8.3008683 c 0.0069,0 0.01306,-0.0015 0.01978,-0.0021 0.01048,-7.43e-4 0.02083,-0.0013 0.0311,-0.0031 0.0098,-0.0018 0.01919,-0.0045 0.02871,-0.0073 0.0087,-0.0026 0.01682,-0.0047 0.02515,-0.0079 0.01096,-0.0042 0.02143,-0.0095 0.0317,-0.01516 0.0048,-0.0029 0.01016,-0.0044 0.01499,-0.0076 0.0016,-8.91e-4 0.0027,-0.0021 0.004,-0.0029 0.01016,-0.0068 0.01935,-0.01435 0.02842,-0.02172 0.0058,-0.0047 0.01177,-0.009 0.01682,-0.01403 0.0081,-0.0076 0.01451,-0.01596 0.02143,-0.02439 0.005,-0.0061 0.01064,-0.01177 0.01515,-0.0183 0.0064,-0.0087 0.01129,-0.0183 0.01622,-0.02767 z"
     id="path3"
     style="fill:#ffffff" />
  <path
     inkscape:connector-curvature="0"
     d="m 12.104293,8.1450415 c -0.572048,0.00387 -1.032663,0.4707307 -1.028794,1.0429279 0.0037,0.5721962 0.47073,1.0328096 1.042926,1.0289416 0.572048,-0.0039 1.032663,-0.4708799 1.028794,-1.0430761 -0.0039,-0.5720478 -0.47073,-1.0326617 -1.042926,-1.0287934 z m 0.01193,1.7509568 c -0.394705,0.00274 -0.716956,-0.3152587 -0.719784,-0.7099636 -0.0029,-0.3948544 0.315111,-0.7171055 0.709966,-0.7199323 0.394853,-0.00268 0.717104,0.3154074 0.719782,0.7101137 0.0029,0.394705 -0.315257,0.7171042 -0.709964,0.7197822 z"
     id="path5"
     style="fill:#ffffff" />
  <path
     inkscape:connector-curvature="0"
     d="m 14.274949,7.0847072 c -0.40512,0.00282 -0.731091,0.3332608 -0.728413,0.7383806 0.0029,0.4049712 0.333261,0.7310906 0.738233,0.7282638 0.40512,-0.00268 0.73109,-0.3332606 0.728412,-0.7382318 -0.0027,-0.4051199 -0.333409,-0.7310905 -0.738232,-0.7284126 z m 0.0085,1.2394618 C 14.003748,8.326099 13.775823,8.1010035 13.77374,7.8214514 13.77184,7.542048 13.996904,7.313824 14.276456,7.31189 c 0.279553,-0.00193 0.507628,0.2231655 0.509563,0.5025688 0.0019,0.2795521 -0.223166,0.5077762 -0.50257,0.5097102 z"
     id="path7"
     style="fill:#ffffff" />
  <path
     inkscape:connector-curvature="0"
     d="m 14.43905,9.6274558 c -0.212304,0.00149 -0.3831,0.1746651 -0.381613,0.3869692 0.0015,0.212305 0.174813,0.382952 0.387118,0.381614 0.212157,-0.0015 0.382953,-0.174665 0.381465,-0.386821 -0.0015,-0.212453 -0.174665,-0.3832503 -0.38697,-0.3817622 z m 0.0047,0.6494132 c -0.146552,8.91e-4 -0.266014,-0.116936 -0.267056,-0.263485 -10e-4,-0.1463915 0.116936,-0.2660131 0.263485,-0.2669063 0.146552,-8.932e-4 0.266013,0.1169356 0.267054,0.2634853 10e-4,0.146536 -0.117242,0.265864 -0.263483,0.266906 z"
     id="path9"
     style="fill:#ffffff" />
  <polygon
     transform="matrix(0.14877707,0,0,0.14877707,3.5612147,6.340822)"
     points="29.716,88.936 45.123,61.015 54.876,61.015 70.283,88.936 "
     id="polygon11"
     style="fill:#ffffff" />
</svg>
